{
	"directory_name": "my_project",
	"project_name": "project",
	"short_description": "Type your short description",
	"version": "0.1.0",
	"use_drf": true,
	"use_jwt_token": true,
	"use_celery": true,
	"use_periodic_tasks": true,
	"use_sentry": true,
	"main_language": [
		"English",
		"Ukrainian"
	],
	"timezone": "Europe/Kiev",
	"use_localization": true,
	"sentry_test": "",
	"sentry_stage": "",
	"sentry_production": ""
}
